<?xml version="1.0" encoding="UTF-8" standalone="no"?>
<svg
   xmlns:dc="http://purl.org/dc/elements/1.1/"
   xmlns:cc="http://creativecommons.org/ns#"
   xmlns:rdf="http://www.w3.org/1999/02/22-rdf-syntax-ns#"
   xmlns:svg="http://www.w3.org/2000/svg"
   xmlns="http://www.w3.org/2000/svg"
   xmlns:sodipodi="http://sodipodi.sourceforge.net/DTD/sodipodi-0.dtd"
   xmlns:inkscape="http://www.inkscape.org/namespaces/inkscape"
   width="89.721367mm"
   height="69.946167mm"
   viewBox="0 0 89.721367 69.946167"
   version="1.1"
   id="svg2531"
   inkscape:version="1.0.2 (e86c870879, 2021-01-15, custom)"
   sodipodi:docname="logo_icon.svg">
  <defs
     id="defs2525" />
  <sodipodi:namedview
     id="base"
     pagecolor="#ffffff"
     bordercolor="#666666"
     borderopacity="1.0"
     inkscape:pageopacity="0.0"
     inkscape:pageshadow="2"
     inkscape:zoom="0.35"
     inkscape:cx="143.83791"
     inkscape:cy="549.32458"
     inkscape:document-units="mm"
     inkscape:current-layer="layer1"
     inkscape:document-rotation="0"
     showgrid="false"
     fit-margin-top="0"
     fit-margin-left="0"
     fit-margin-right="0"
     fit-margin-bottom="0"
     inkscape:window-width="1236"
     inkscape:window-height="864"
     inkscape:window-x="2154"
     inkscape:window-y="1"
     inkscape:window-maximized="0" />
  <metadata
     id="metadata2528">
    <rdf:RDF>
      <cc:Work
         rdf:about="">
        <dc:format>image/svg+xml</dc:format>
        <dc:type
           rdf:resource="http://purl.org/dc/dcmitype/StillImage" />
        <dc:title></dc:title>
      </cc:Work>
    </rdf:RDF>
  </metadata>
  <g
     inkscape:label="Capa 1"
     inkscape:groupmode="layer"
     id="layer1"
     transform="translate(-67.77622,-2.824537)">
    <g
       id="g1798"
       transform="matrix(0.35277777,0,0,-0.35277777,77.764417,2.824537)">
      <path
         d="M 0,0 H -28.313 V -28.313 -56.625 H 0 v 28.312 H 28.313 V 0 Z"
         style="fill:#ec008c;fill-opacity:1;fill-rule:nonzero;stroke:none"
         id="path1800" />
    </g>
    <path
       d="m 77.689028,62.780389 h 9.988197 V 42.804348 h -9.988197 z"
       style="fill:#231f20;fill-opacity:1;fill-rule:nonzero;stroke:none;stroke-width:0.352778"
       id="path1802" />
    <path
       d="m 127.59191,2.8540292 h -9.98819 v 9.9881968 h 9.98819 z"
       style="fill:#231f20;fill-opacity:1;fill-rule:nonzero;stroke:none;stroke-width:0.352778"
       id="path1804" />
    <path
       d="M 87.700156,72.770703 H 107.61587 V 62.782506 H 87.700156 Z"
       style="fill:#231f20;fill-opacity:1;fill-rule:nonzero;stroke:none;stroke-width:0.352778"
       id="path1806" />
    <path
       d="m 147.50939,12.842226 h 9.9882 V 2.8540292 h -9.9882 z"
       style="fill:#231f20;fill-opacity:1;fill-rule:nonzero;stroke:none;stroke-width:0.352778"
       id="path1808" />
    <g
       id="g1810"
       transform="matrix(0.35277777,0,0,-0.35277777,137.52127,32.818409)">
      <path
         d="M 0,0 H -56.459 V 56.625 H -84.771 V 0 h -56.454 v -28.313 h 56.454 v -56.625 h 28.312 v 0 56.625 H 0 V -84.938 H 28.313 V -28.313 0 56.625 H 0 Z"
         style="fill:#231f20;fill-opacity:1;fill-rule:nonzero;stroke:none"
         id="path1812" />
    </g>
    <path
       d="m 117.60407,72.770703 h 19.91748 v -9.988197 h -19.91748 z"
       style="fill:#231f20;fill-opacity:1;fill-rule:nonzero;stroke:none;stroke-width:0.352778"
       id="path1814" />
  </g>
</svg>
